{
  "type": "object",
  "required": [
    "description",
    "action",
    "product_group",
    "introduced_by_url",
    "milestone",
    "tiers",
    "distributions"
  ],
  "additionalProperties": false,
  "properties": {
    "description": {
      "type": "string"
    },
    "category": {
      "type": "string"
    },
    "internal_events": {
      "type": "boolean",
      "const": true
    },
    "action": {
      "type": "string",
      "pattern": "^[a-z0-9_]+$"
    },
    "extra_properties": {
      "type": [
        "object",
        "null"
      ]
    },
    "identifiers": {
      "type": [
        "array",
        "null"
      ],
      "items": {
        "type": "string",
        "enum": [
          "project",
          "user",
          "namespace"
        ]
      }
    },
    "additional_properties": {
      "type": "object",
      "properties": {
        "label": {
          "type": "object",
          "properties": {
            "description": {
              "type": "string"
            }
          },
          "required": [
            "description"
          ],
          "additionalProperties": false
        },
        "property": {
          "type": "object",
          "properties": {
            "description": {
              "type": "string"
            }
          },
          "required": [
            "description"
          ],
          "additionalProperties": false
        },
        "value": {
          "type": "object",
          "properties": {
            "description": {
              "type": "string"
            }
          },
          "required": [
            "description"
          ],
          "additionalProperties": false
        }
      },
      "additionalProperties": false
    },
    "iglu_schema_url": {
      "type": [
        "string",
        "null"
      ]
    },
    "product_group": {
      "type": "string"
    },
    "introduced_by_url": {
      "type": [
        "string",
        "null"
      ],
      "format": "uri"
    },
    "milestone": {
      "type": [
        "string",
        "null"
      ],
      "pattern": "^[0-9]+\\.[0-9]+$"
    },
    "distributions": {
      "type": "array",
      "items": {
        "type": "string",
        "enum": [
          "ee",
          "ce"
        ]
      }
    },
    "tiers": {
      "type": "array",
      "items": {
        "type": "string",
        "enum": [
          "free",
          "premium",
          "ultimate"
        ]
      }
    }
  }
}
